…
    ## Parsed with column specification:
    ## cols(
    ##   plate_map_name = col_character(),
    ##   well_position = col_character(),
    ##   plating_density = col_double(),
    ##   line_ID = col_double()
    ## )

``` r
metadata %>% 
  group_by(line_ID) %>%
  tally()
```

    ## # A tibble: 48 x 2
    ##    line_ID     n
    ##      <dbl> <int>
    ##  1       1     8
    ##  2       2     8
    ##  3       3     8
    ##  4       4     8
    ##  5       5     8
    ##  6       6     8
    ##  7       7     8
    ##  8       8     8
    ##  9       9     8
    ## 10      10     8
    ## # … with 38 more rows
…
